{
  "file_generated_by": "FlutterFire CLI",
  "purpose": "FirebaseAppID & ProjectID for this Firebase app in this directory",
  "GOOGLE_APP_ID": "1:308358662325:ios:1422c5fd073502a48b96fc",
  "FIREBASE_PROJECT_ID": "ebox-vendor",
  "GCM_SENDER_ID": "308358662325"
}